Network visualization with tidygraph and ggraph
…
tidygraph offers a different type of graph objects. Objects created with igraph need to be converted to tidygraph objects first:

# creating our igraph object
graph1 <- graph_from_adjacency_matrix(adjmatrix = friends$wave_1)

# converting it to tidygraph
tgraph <- as_tbl_graph(graph1)

tgraph

# A tbl_graph: 50 nodes and 117 edges
#
# A directed simple graph with 7 components
#
# A tibble: 50 × 1
  name
  <chr>
1 s001
2 s003
3 s007
4 s011
5 s012
6 s013
# ℹ 44 more rows
#
# A tibble: 117 × 2
   from    to
  <int> <int>
1     1    11
2     1    14
3     2     7
# ℹ 114 more rows
…
tgraph

# A tbl_graph: 50 nodes and 117 edges
#
# A directed simple graph with 7 components
#
# A tibble: 50 × 9
  name    age gender alcohol      tobacco  weed  pocketmon single family_smoking
  <chr> <dbl> <fct>  <fct>        <fct>    <fct>     <dbl> <fct>           <dbl>
1 s001   13.3 female once a month occasio… never       6.2 single              0
2 s003   13.7 female seldomly     regular… trie…       8   in re…              1
3 s007   13.5 female seldomly     never    never       5   single              1
4 s011   13.4 female seldomly     never    never       3.5 single              0
5 s012   13   female once a month never    never       6   single              0
6 s013   13.6 female once a weak  never    never       5   single              0
# ℹ 44 more rows
#
# A tibble: 117 × 2
   from    to
  <int> <int>
1     1    11
2     1    14
3     2     7
# ℹ 114 more rows
…
